<svg xmlns="http://www.w3.org/2000/svg" width="1063" height="278" viewBox="0 0 1063 278">
  <rect id="Retângulo_42" data-name="Retângulo 42" width="1063" height="278" fill="#000f8f" opacity="0.813"/>
</svg>
