<svg xmlns="http://www.w3.org/2000/svg" width="152.068" height="57.945" viewBox="0 0 152.068 57.945">
  <g id="Grupo_48" data-name="Grupo 48" transform="translate(-23.079 -70.69)">
    <g id="Grupo_22" data-name="Grupo 22" transform="translate(23.079 70.69)">
      <g id="Grupo_21" data-name="Grupo 21">
        <path id="Caminho_10" data-name="Caminho 10" d="M45.377,70.69a22.3,22.3,0,1,0,22.3,22.3A22.3,22.3,0,0,0,45.377,70.69Zm-3.583,39.348c5.015-3.558-6.789-6.217-6.789-6.217l9.449-27.872h.923l10.371,27.459C54.388,108.763,41.794,110.038,41.794,110.038Z" transform="translate(-23.079 -70.69)" fill="#fff"/>
      </g>
    </g>
    <g id="Grupo_23" data-name="Grupo 23" transform="translate(167.979 73.944)">
      <path id="Caminho_11" data-name="Caminho 11" d="M176.837,77.554a3.584,3.584,0,1,1-3.573-3.572A3.386,3.386,0,0,1,176.837,77.554Zm-.6,0a2.983,2.983,0,1,0-2.97,3.086A2.877,2.877,0,0,0,176.234,77.554Zm-2.251.372,1,1.531h-.812l-.859-1.416h-.789v1.416h-.7V75.675h1.555a1.191,1.191,0,0,1,1.322,1.207A1.1,1.1,0,0,1,173.984,77.926Zm-1.462-.441h.742c.442,0,.72-.255.72-.6a.61.61,0,0,0-.673-.627h-.789Z" transform="translate(-169.669 -73.982)" fill="#fff"/>
    </g>
    <g id="Grupo_28" data-name="Grupo 28" transform="translate(78.272 71.916)">
      <g id="Grupo_24" data-name="Grupo 24">
        <path id="Caminho_12" data-name="Caminho 12" d="M78.916,107.877a7.014,7.014,0,0,1,.107-1.286l4.714-33.482a13.279,13.279,0,0,1,4.875-1.178c1.929,0,3,.857,3,2.947a4.176,4.176,0,0,1-.053.7l-4.125,30a8.021,8.021,0,0,0-.107.911c0,.857.481,1.178,1.338,1.178a5.718,5.718,0,0,0,2.143-.375l.644,5.411a10.945,10.945,0,0,1-5.893,1.553C81.219,114.251,78.916,111.895,78.916,107.877Z" transform="translate(-78.916 -71.93)" fill="#fff"/>
      </g>
      <g id="Grupo_25" data-name="Grupo 25" transform="translate(15.535 14.143)">
        <path id="Caminho_13" data-name="Caminho 13" d="M118.847,110.559a4.54,4.54,0,0,0,.536,2.464,12.459,12.459,0,0,1-5.357,1.393c-1.822,0-3.214-1.339-3.214-3.7a11.147,11.147,0,0,1,.053-1.125l.053-.7c-2.358,3.965-5.035,5.518-8.464,5.518-3.75,0-7.822-3-7.822-9.428,0-10.554,5.947-18.75,16.5-18.75,2.25,0,7.607.214,11.09.536l-3.268,22.232A13.315,13.315,0,0,0,118.847,110.559Zm-6.375-13.768.643-4.338c-.965-.054-1.822-.054-2.572-.054-4.874,0-7.232,5.09-7.232,10.393,0,3.215.911,5.09,3.107,5.09C108.882,107.881,111.239,105.148,112.472,96.791Z" transform="translate(-94.632 -86.238)" fill="#fff"/>
      </g>
      <g id="Grupo_26" data-name="Grupo 26" transform="translate(45.053 14.143)">
        <path id="Caminho_14" data-name="Caminho 14" d="M146.405,87.2l-3.161,7.179a4.524,4.524,0,0,0-2.786-.858c-3.429,0-5.3,3.8-6.7,13.608l-.964,6.749h-8.3l3.643-26.625a12.278,12.278,0,0,1,4.34-1.017c2.2,0,3.268,1.714,3.268,4.072a7.591,7.591,0,0,1-.054.964l-.053.536c2.09-4.125,4.233-5.571,6.965-5.571A8.137,8.137,0,0,1,146.405,87.2Z" transform="translate(-124.494 -86.238)" fill="#fff"/>
      </g>
      <g id="Grupo_27" data-name="Grupo 27" transform="translate(64.553 14.143)">
        <path id="Caminho_15" data-name="Caminho 15" d="M168.169,89.506,164.74,93.9a11.188,11.188,0,0,0-6.107-1.875c-1.875,0-3.321.91-3.321,2.464,0,1.286,1.285,1.982,3.214,2.679,3.858,1.393,7.93,3.107,7.93,7.767,0,6.322-5.358,9.482-11.84,9.482-4.125,0-7.661-1.018-10.393-3.429l2.679-4.929a13.017,13.017,0,0,0,7.553,2.464c2.036,0,3.8-.749,3.8-2.464,0-1.446-1.822-2.2-3.75-2.839-3.376-1.125-7.286-2.947-7.286-7.446,0-6.108,4.767-9.536,11.25-9.536A14.918,14.918,0,0,1,168.169,89.506Z" transform="translate(-144.222 -86.238)" fill="#fff"/>
      </g>
    </g>
    <g id="Grupo_47" data-name="Grupo 47" transform="translate(78.339 122.634)">
      <g id="Grupo_29" data-name="Grupo 29" transform="translate(0 1.883)">
        <path id="Caminho_16" data-name="Caminho 16" d="M78.983,127.207a2.025,2.025,0,1,1,2.032,2.055A1.936,1.936,0,0,1,78.983,127.207Zm3.48,0a1.461,1.461,0,1,0-1.448,1.59A1.436,1.436,0,0,0,82.463,127.207Z" transform="translate(-78.983 -125.145)" fill="#fff"/>
      </g>
      <g id="Grupo_30" data-name="Grupo 30" transform="translate(6.743 1.883)">
        <path id="Caminho_17" data-name="Caminho 17" d="M85.805,127.2a1.937,1.937,0,0,1,2.04-2.055,1.975,1.975,0,0,1,1.282.435l-.307.375a1.56,1.56,0,1,0-.968,2.843,1.488,1.488,0,0,0,1.08-.428l.314.368a2.029,2.029,0,0,1-1.432.525A1.927,1.927,0,0,1,85.805,127.2Z" transform="translate(-85.805 -125.145)" fill="#fff"/>
      </g>
      <g id="Grupo_31" data-name="Grupo 31" transform="translate(10.643 1.883)">
        <path id="Caminho_18" data-name="Caminho 18" d="M89.75,127.207a2.025,2.025,0,1,1,2.032,2.055A1.936,1.936,0,0,1,89.75,127.207Zm3.48,0a1.461,1.461,0,1,0-1.448,1.59A1.436,1.436,0,0,0,93.23,127.207Z" transform="translate(-89.75 -125.145)" fill="#fff"/>
      </g>
      <g id="Grupo_32" data-name="Grupo 32" transform="translate(15.661 1.883)">
        <path id="Caminho_19" data-name="Caminho 19" d="M98.419,126.69v2.5h-.54v-2.392a1.259,1.259,0,0,0-2.513,0v2.392h-.54V125.22h.524l.008.667a1.53,1.53,0,0,1,1.432-.742A1.5,1.5,0,0,1,98.419,126.69Z" transform="translate(-94.827 -125.145)" fill="#fff"/>
      </g>
      <g id="Grupo_33" data-name="Grupo 33" transform="translate(20.431)">
        <path id="Caminho_20" data-name="Caminho 20" d="M100.192,124.433v.765h1.342v.449h-1.342v3.518h-.54V124.35a1.065,1.065,0,0,1,1.147-1.11,1.793,1.793,0,0,1,.811.158l-.044.427a1.423,1.423,0,0,0-.615-.12A.7.7,0,0,0,100.192,124.433Z" transform="translate(-99.652 -123.24)" fill="#fff"/>
      </g>
      <g id="Grupo_34" data-name="Grupo 34" transform="translate(22.561 1.883)">
        <path id="Caminho_21" data-name="Caminho 21" d="M101.807,127.207a2.025,2.025,0,1,1,2.031,2.055A1.936,1.936,0,0,1,101.807,127.207Zm3.479,0a1.461,1.461,0,1,0-1.448,1.59A1.436,1.436,0,0,0,105.286,127.207Z" transform="translate(-101.807 -125.145)" fill="#fff"/>
      </g>
      <g id="Grupo_35" data-name="Grupo 35" transform="translate(27.578 1.883)">
        <path id="Caminho_22" data-name="Caminho 22" d="M108.989,125.145l-.044.494c-.968,0-1.522.488-1.522,1.245v2.3h-.54V125.22h.524l.008.667A1.667,1.667,0,0,1,108.989,125.145Z" transform="translate(-106.883 -125.145)" fill="#fff"/>
      </g>
      <g id="Grupo_36" data-name="Grupo 36" transform="translate(30.315 0.795)">
        <path id="Caminho_23" data-name="Caminho 23" d="M111.684,128.642v.442a2.492,2.492,0,0,1-.96.165,1.025,1.025,0,0,1-1.072-1.1v-4.11h.54v1.163h1.432v.449h-1.432v2.393a.68.68,0,0,0,.7.735A2.264,2.264,0,0,0,111.684,128.642Z" transform="translate(-109.652 -124.044)" fill="#fff"/>
      </g>
      <g id="Grupo_37" data-name="Grupo 37" transform="translate(32.746 1.883)">
        <path id="Caminho_24" data-name="Caminho 24" d="M112.111,127.207a2.025,2.025,0,1,1,2.032,2.055A1.936,1.936,0,0,1,112.111,127.207Zm3.479,0a1.461,1.461,0,1,0-1.447,1.59A1.436,1.436,0,0,0,115.59,127.207Z" transform="translate(-112.111 -125.145)" fill="#fff"/>
      </g>
      <g id="Grupo_38" data-name="Grupo 38" transform="translate(39.496 1.883)">
        <path id="Caminho_25" data-name="Caminho 25" d="M122.682,127.4h-3.165c.067.862.532,1.424,1.32,1.424a1.577,1.577,0,0,0,1.283-.675l.412.233a1.98,1.98,0,0,1-1.7.877,2.066,2.066,0,0,1-.015-4.117,1.835,1.835,0,0,1,1.867,2.01C122.689,127.222,122.689,127.342,122.682,127.4Zm-3.165-.383h2.61c-.044-.886-.54-1.44-1.3-1.44S119.57,126.134,119.517,127.02Z" transform="translate(-118.94 -125.145)" fill="#fff"/>
      </g>
      <g id="Grupo_39" data-name="Grupo 39" transform="translate(44.184 1.883)">
        <path id="Caminho_26" data-name="Caminho 26" d="M129.794,126.69v2.5h-.54v-2.392a1.126,1.126,0,1,0-2.25,0v2.392h-.54v-2.392a1.123,1.123,0,1,0-2.243,0v2.392h-.54V125.22h.525l.007.63a1.383,1.383,0,0,1,1.3-.7,1.405,1.405,0,0,1,1.342.81,1.444,1.444,0,0,1,1.38-.81A1.464,1.464,0,0,1,129.794,126.69Z" transform="translate(-123.682 -125.145)" fill="#fff"/>
      </g>
      <g id="Grupo_40" data-name="Grupo 40" transform="translate(53.236 1.883)">
        <path id="Caminho_27" data-name="Caminho 27" d="M132.847,128.843l.225-.338a1.89,1.89,0,0,0,1.14.322c.563,0,.938-.262.938-.667,0-.375-.353-.585-.832-.721l-.428-.127c-.623-.173-1.05-.421-1.05-1.013,0-.7.555-1.155,1.395-1.155a2.386,2.386,0,0,1,1.35.36l-.232.368a1.984,1.984,0,0,0-1.08-.293c-.525,0-.878.247-.878.637,0,.369.307.533.735.653l.428.128c.6.165,1.147.465,1.147,1.117,0,.69-.577,1.148-1.493,1.148A2.052,2.052,0,0,1,132.847,128.843Z" transform="translate(-132.84 -125.145)" fill="#fff"/>
      </g>
      <g id="Grupo_41" data-name="Grupo 41" transform="translate(57.016 1.958)">
        <path id="Caminho_28" data-name="Caminho 28" d="M136.664,127.673v-2.452h.54v2.4a1.208,1.208,0,0,0,2.416,0v-2.4h.54v2.452a1.755,1.755,0,0,1-3.5,0Z" transform="translate(-136.664 -125.221)" fill="#fff"/>
      </g>
      <g id="Grupo_42" data-name="Grupo 42" transform="translate(61.426 1.883)">
        <path id="Caminho_29" data-name="Caminho 29" d="M145.153,125.22v3.967h-.525l-.015-.855a1.637,1.637,0,0,1-1.583.93,2.065,2.065,0,0,1,0-4.117,1.638,1.638,0,0,1,1.583.929l.015-.854Zm-.54,1.987a1.464,1.464,0,1,0-1.456,1.59A1.446,1.446,0,0,0,144.613,127.207Z" transform="translate(-141.125 -125.145)" fill="#fff"/>
      </g>
      <g id="Grupo_43" data-name="Grupo 43" transform="translate(68.409 1.883)">
        <path id="Caminho_30" data-name="Caminho 30" d="M148.19,127.2a1.937,1.937,0,0,1,2.04-2.055,1.977,1.977,0,0,1,1.282.435l-.307.375a1.56,1.56,0,1,0-.968,2.843,1.488,1.488,0,0,0,1.08-.428l.314.368a2.029,2.029,0,0,1-1.432.525A1.927,1.927,0,0,1,148.19,127.2Z" transform="translate(-148.19 -125.145)" fill="#fff"/>
      </g>
      <g id="Grupo_44" data-name="Grupo 44" transform="translate(72.317 1.883)">
        <path id="Caminho_31" data-name="Caminho 31" d="M156.17,125.22v3.967h-.525l-.015-.855a1.636,1.636,0,0,1-1.583.93,2.065,2.065,0,0,1,0-4.117,1.637,1.637,0,0,1,1.583.929l.015-.854Zm-.54,1.987a1.464,1.464,0,1,0-1.456,1.59A1.446,1.446,0,0,0,155.63,127.207Z" transform="translate(-152.143 -125.145)" fill="#fff"/>
      </g>
      <g id="Grupo_45" data-name="Grupo 45" transform="translate(77.341 1.883)">
        <path id="Caminho_32" data-name="Caminho 32" d="M157.234,128.843l.225-.338a1.888,1.888,0,0,0,1.14.322c.562,0,.937-.262.937-.667,0-.375-.353-.585-.832-.721l-.427-.127c-.623-.173-1.051-.421-1.051-1.013,0-.7.555-1.155,1.395-1.155a2.386,2.386,0,0,1,1.35.36l-.232.368a1.978,1.978,0,0,0-1.079-.293c-.526,0-.878.247-.878.637,0,.369.307.533.734.653l.428.128c.6.165,1.148.465,1.148,1.117,0,.69-.578,1.148-1.493,1.148A2.053,2.053,0,0,1,157.234,128.843Z" transform="translate(-157.226 -125.145)" fill="#fff"/>
      </g>
      <g id="Grupo_46" data-name="Grupo 46" transform="translate(80.911 1.883)">
        <path id="Caminho_33" data-name="Caminho 33" d="M164.866,125.22v3.967h-.525l-.016-.855a1.636,1.636,0,0,1-1.583.93,2.065,2.065,0,0,1,0-4.117,1.637,1.637,0,0,1,1.583.929l.016-.854Zm-.541,1.987a1.464,1.464,0,1,0-1.455,1.59A1.445,1.445,0,0,0,164.325,127.207Z" transform="translate(-160.838 -125.145)" fill="#fff"/>
      </g>
    </g>
  </g>
</svg>
