<svg xmlns="http://www.w3.org/2000/svg" width="211.984" height="57.255" viewBox="0 0 211.984 57.255">
  <g id="Grupo_60" data-name="Grupo 60" transform="translate(-17.328 -77.671)">
    <g id="Grupo_50" data-name="Grupo 50" transform="translate(17.328 77.671)">
      <path id="Caminho_36" data-name="Caminho 36" d="M36.485,77.671c11.325,0,19.207,8.431,19.207,18.708,0,10.427-7.882,18.708-19.207,18.708-11.275,0-19.157-8.281-19.157-18.708C17.328,86.1,25.21,77.671,36.485,77.671Zm0,27.888c5.289,0,8.681-4.34,8.681-9.18,0-4.739-3.392-9.18-8.681-9.18-5.239,0-8.681,4.441-8.681,9.18C27.8,101.219,31.246,105.559,36.485,105.559Z" transform="translate(-17.328 -77.671)" fill="#fff"/>
    </g>
    <g id="Grupo_51" data-name="Grupo 51" transform="translate(57.457 78.42)">
      <path id="Caminho_37" data-name="Caminho 37" d="M77.165,101.7c0,8.58-5.389,13.22-11.675,13.22-3.292,0-6.436-1.646-7.434-3.891h-.1a4.634,4.634,0,0,1,.05,1.5l-.2,1.647h-9.18V78.255H58.805V89.131a9.888,9.888,0,0,1-.15,2.095h.1C60,89.678,62.5,88.482,65.74,88.482,71.776,88.482,77.165,93.121,77.165,101.7Zm-9.48,0c0-2.994-1.945-4.84-4.24-4.84S59.2,98.709,59.2,101.7s1.946,4.839,4.241,4.839S67.685,104.7,67.685,101.7Z" transform="translate(-48.628 -78.255)" fill="#fff"/>
    </g>
    <g id="Grupo_52" data-name="Grupo 52" transform="translate(86.672 88.647)">
      <path id="Caminho_38" data-name="Caminho 38" d="M92.218,104.59c0,5.09-4.191,8.082-11.375,8.082a23.264,23.264,0,0,1-8.881-1.6V102.3a21.627,21.627,0,0,0,8.781,2.545c1.1,0,2.195-.1,2.195-.749,0-.6-1.2-.847-3.142-1.346-4.89-1.2-8.381-3.194-8.381-8.331s3.641-8.182,10.077-8.182a26.289,26.289,0,0,1,9.08,1.546v8.531a21.848,21.848,0,0,0-8.182-2.145c-.6,0-1.7.05-1.7.749,0,.547.749.947,2.694,1.4C89.424,97.755,92.218,99.8,92.218,104.59Z" transform="translate(-71.415 -86.232)" fill="#fff"/>
    </g>
    <g id="Grupo_53" data-name="Grupo 53" transform="translate(108.562 88.647)">
      <path id="Caminho_39" data-name="Caminho 39" d="M103.755,103.893a10.874,10.874,0,0,0,5.737-1.946v9.03a16.552,16.552,0,0,1-7.485,1.7c-8.231,0-13.518-5.637-13.518-13.22s5.287-13.221,13.518-13.221a15.93,15.93,0,0,1,7.335,1.646v9.08a9.848,9.848,0,0,0-5.587-1.946c-2.895,0-5.039,1.6-5.039,4.441S100.711,103.893,103.755,103.893Z" transform="translate(-88.489 -86.232)" fill="#fff"/>
    </g>
    <g id="Grupo_54" data-name="Grupo 54" transform="translate(132.099 89.394)">
      <path id="Caminho_40" data-name="Caminho 40" d="M106.847,86.815h10.177v14.07c0,1.546.847,2.494,2.095,2.494,2.145,0,3.442-1.6,3.442-3.991V86.815h9.605l.572,24.945h-9.18l-.3-2.245a2.845,2.845,0,0,1,.2-1.547h-.1a9.251,9.251,0,0,1-7.734,4.54c-5.089,0-8.78-3.192-8.78-10.127Z" transform="translate(-106.847 -86.815)" fill="#fff"/>
    </g>
    <g id="Grupo_55" data-name="Grupo 55" transform="translate(148.239 88.619)">
      <path id="Caminho_41" data-name="Caminho 41" d="M119.436,86.985h9.18l.4,2.845a10.457,10.457,0,0,1,7.033-3.592,13.533,13.533,0,0,1,6.7,1.5L137.7,96.265a4.467,4.467,0,0,0-1.946-.4c-2.794,0-6.136,1.446-6.136,5.687v10.377H119.436Z" transform="translate(-119.436 -86.211)" fill="#fff"/>
    </g>
    <g id="Grupo_56" data-name="Grupo 56" transform="translate(168.75 88.647)">
      <path id="Caminho_42" data-name="Caminho 42" d="M135.434,99.453c0-7.584,5.737-13.221,13.72-13.221s13.718,5.637,13.718,13.221-5.736,13.22-13.718,13.22S135.434,107.035,135.434,99.453Zm9.478,0c0,2.994,1.946,4.839,4.241,4.839s4.24-1.845,4.24-4.839-1.946-4.84-4.24-4.84S144.912,96.459,144.912,99.453Z" transform="translate(-135.434 -86.232)" fill="#fff"/>
    </g>
    <g id="Grupo_57" data-name="Grupo 57" transform="translate(197.523 88.647)">
      <path id="Caminho_43" data-name="Caminho 43" d="M178.68,104.59c0,5.09-4.19,8.082-11.375,8.082a23.257,23.257,0,0,1-8.88-1.6V102.3a21.621,21.621,0,0,0,8.78,2.545c1.1,0,2.195-.1,2.195-.749,0-.6-1.2-.847-3.142-1.346-4.89-1.2-8.381-3.194-8.381-8.331s3.641-8.182,10.077-8.182a26.289,26.289,0,0,1,9.08,1.546v8.531a21.855,21.855,0,0,0-8.182-2.145c-.6,0-1.7.05-1.7.749,0,.547.749.947,2.695,1.4C175.886,97.755,178.68,99.8,178.68,104.59Z" transform="translate(-157.877 -86.232)" fill="#fff"/>
    </g>
    <g id="Grupo_58" data-name="Grupo 58" transform="translate(150.803 127.221)">
      <path id="Caminho_44" data-name="Caminho 44" d="M129.742,121.026c-.905-.283-1.621-.736-1.621-1.588,0-.874.758-1.41,1.81-1.41a3.619,3.619,0,0,1,1.453.315v.568a3.29,3.29,0,0,0-1.4-.358c-.8,0-1.295.327-1.295.885,0,.536.442.81,1.295,1.085,1.137.358,1.705.778,1.705,1.609,0,.959-.8,1.412-1.831,1.412a4.252,4.252,0,0,1-1.715-.347v-.579a4.261,4.261,0,0,0,1.683.4c.674,0,1.295-.263,1.295-.873C131.121,121.553,130.679,121.31,129.742,121.026Z" transform="translate(-119.55 -115.837)" fill="#fff"/>
      <path id="Caminho_45" data-name="Caminho 45" d="M132.036,118.125h.58v3.158c0,.873.115,1.674,1.21,1.674a2.121,2.121,0,0,0,2.041-2.254v-2.578h.59v5.263h-.568l-.01-.873a2.412,2.412,0,0,1,.041-.432H135.9a2.322,2.322,0,0,1-2.115,1.432c-1.295,0-1.747-.727-1.747-2.064Z" transform="translate(-118.446 -115.81)" fill="#fff"/>
      <path id="Caminho_46" data-name="Caminho 46" d="M137.1,118.427a4.051,4.051,0,0,1,1.79-.4,1.792,1.792,0,0,1,2.063,2v3.39h-.558V122.7a2,2,0,0,1,.032-.464H140.4a2.351,2.351,0,0,1-2.01,1.306,1.463,1.463,0,0,1-1.621-1.442c0-1.327,1.431-1.978,3.6-1.653v-.4c0-1.105-.61-1.485-1.537-1.485a3.658,3.658,0,0,0-1.737.442Zm3.274,2.494c-1.885-.305-3,.2-3,1.147a.964.964,0,0,0,1.085.947A2.081,2.081,0,0,0,140.371,120.921Z" transform="translate(-117.11 -115.837)" fill="#fff"/>
      <path id="Caminho_47" data-name="Caminho 47" d="M121.762,118.427a4.051,4.051,0,0,1,1.79-.4,1.792,1.792,0,0,1,2.063,2v3.39h-.558V122.7a2,2,0,0,1,.032-.464h-.022a2.351,2.351,0,0,1-2.01,1.306,1.463,1.463,0,0,1-1.621-1.442c0-1.327,1.431-1.978,3.6-1.653v-.4c0-1.105-.612-1.485-1.537-1.485a3.654,3.654,0,0,0-1.737.442Zm3.274,2.494c-1.885-.305-3,.2-3,1.147a.964.964,0,0,0,1.085.947A2.081,2.081,0,0,0,125.036,120.921Z" transform="translate(-121.436 -115.837)" fill="#fff"/>
      <path id="Caminho_48" data-name="Caminho 48" d="M148.277,120.49c0,.115-.012.231-.012.315h-4.221v.074a2,2,0,0,0,2.073,2.126,3.7,3.7,0,0,0,1.958-.558v.59a3.981,3.981,0,0,1-1.968.505,2.764,2.764,0,0,1-.158-5.516A2.307,2.307,0,0,1,148.277,120.49Zm-2.337-1.927a1.924,1.924,0,0,0-1.874,1.79h3.6A1.7,1.7,0,0,0,145.94,118.563Z" transform="translate(-115.23 -115.837)" fill="#fff"/>
      <path id="Caminho_49" data-name="Caminho 49" d="M149.75,121.026c-.905-.283-1.621-.736-1.621-1.588,0-.874.758-1.41,1.81-1.41a3.619,3.619,0,0,1,1.453.315v.568a3.289,3.289,0,0,0-1.4-.358c-.8,0-1.295.327-1.295.885,0,.536.442.81,1.295,1.085,1.137.358,1.705.778,1.705,1.609,0,.959-.8,1.412-1.832,1.412a4.261,4.261,0,0,1-1.715-.347v-.579a4.267,4.267,0,0,0,1.685.4c.673,0,1.295-.263,1.295-.873C151.129,121.553,150.687,121.31,149.75,121.026Z" transform="translate(-113.906 -115.837)" fill="#fff"/>
      <path id="Caminho_50" data-name="Caminho 50" d="M154.49,123a3.062,3.062,0,0,0,1.695-.485v.6a3.46,3.46,0,0,1-1.715.432,2.759,2.759,0,0,1,0-5.516,3.355,3.355,0,0,1,1.683.431v.6a3,3,0,0,0-1.663-.485,2.215,2.215,0,0,0,0,4.422Z" transform="translate(-112.869 -115.837)" fill="#fff"/>
      <path id="Caminho_51" data-name="Caminho 51" d="M161.4,120.783a2.645,2.645,0,1,1-2.642-2.756A2.634,2.634,0,0,1,161.4,120.783Zm-.59,0a2.059,2.059,0,1,0-2.053,2.222A2.067,2.067,0,0,0,160.809,120.783Z" transform="translate(-111.654 -115.837)" fill="#fff"/>
      <path id="Caminho_52" data-name="Caminho 52" d="M161.638,116.319h.578v6.241c0,.632.18.937.674.937a1.443,1.443,0,0,0,.432-.053v.515a2.174,2.174,0,0,1-.517.064c-.705,0-1.168-.38-1.168-1.359Z" transform="translate(-110.096 -116.319)" fill="#fff"/>
      <path id="Caminho_53" data-name="Caminho 53" d="M164.042,116.319h.578v3.158a3.413,3.413,0,0,1-.041.463h.021a2.367,2.367,0,0,1,2.168-1.431c1.347,0,1.747.8,1.747,2.063V123.9h-.578V120.74c0-.863-.117-1.673-1.222-1.673a2.14,2.14,0,0,0-2.095,2.253V123.9h-.578Z" transform="translate(-109.418 -116.319)" fill="#fff"/>
      <path id="Caminho_54" data-name="Caminho 54" d="M169,118.427a4.046,4.046,0,0,1,1.79-.4,1.792,1.792,0,0,1,2.063,2v3.39h-.558V122.7a1.968,1.968,0,0,1,.031-.464H172.3a2.351,2.351,0,0,1-2.01,1.306,1.464,1.464,0,0,1-1.622-1.442c0-1.327,1.432-1.978,3.6-1.653v-.4c0-1.105-.61-1.485-1.536-1.485a3.654,3.654,0,0,0-1.737.442Zm3.273,2.494c-1.883-.305-3,.2-3,1.147a.964.964,0,0,0,1.083.947A2.081,2.081,0,0,0,172.27,120.921Z" transform="translate(-108.112 -115.837)" fill="#fff"/>
      <path id="Caminho_55" data-name="Caminho 55" d="M173.468,121.664a.426.426,0,1,1,0,.853.426.426,0,1,1,0-.853Z" transform="translate(-106.881 -114.811)" fill="#fff"/>
    </g>
    <g id="Grupo_59" data-name="Grupo 59" transform="translate(221.649 81.379)">
      <path id="Caminho_56" data-name="Caminho 56" d="M180.505,80.563a3.917,3.917,0,1,1-3.81,3.915A3.861,3.861,0,0,1,180.505,80.563Zm0,7.053a3.14,3.14,0,1,0-3.021-3.137A3.063,3.063,0,0,0,180.505,87.616Zm-.632-1.042h-.81v-4.21h1.474a1.376,1.376,0,0,1,1.505,1.358,1.189,1.189,0,0,1-.832,1.147l.885,1.705h-.863l-.758-1.58h-.6Zm0-3.485v1.253h.549c.505,0,.778-.188.778-.621s-.273-.632-.778-.632Z" transform="translate(-176.695 -80.563)" fill="#fff"/>
    </g>
  </g>
</svg>
